<?xml version="1.0" encoding="utf-8"?>
<!-- Generator: Adobe Illustrator 16.0.0, SVG Export Plug-In . SVG Version: 6.00 Build 0)  -->
<!DOCTYPE svg PUBLIC "-//W3C//DTD SVG 1.1//EN" "http://www.w3.org/Graphics/SVG/1.1/DTD/svg11.dtd">
<svg version="1.1" id="Layer_1" xmlns="http://www.w3.org/2000/svg" xmlns:xlink="http://www.w3.org/1999/xlink" x="0px" y="0px"
	 width="718px" height="168px" viewBox="0 0 718 168" enable-background="new 0 0 718 168" xml:space="preserve">
<g>
	<defs>
		<rect id="SVGID_1_" x="-167" width="1000" height="1000"/>
	</defs>
	<clipPath id="SVGID_2_">
		<use xlink:href="#SVGID_1_"  overflow="visible"/>
	</clipPath>
	<g clip-path="url(#SVGID_2_)">
		<defs>
			<rect id="SVGID_3_" x="-167" y="-53.662" width="1000" height="1000"/>
		</defs>
		<clipPath id="SVGID_4_">
			<use xlink:href="#SVGID_3_"  overflow="visible"/>
		</clipPath>
		<g clip-path="url(#SVGID_4_)">
			<path fill="#18D6CC" d="M71.517,78.433c-0.21-0.173-0.432-0.335-0.648-0.504c-6.818,5.332-16.398,8.283-24.079,8.687
				c2.488,0.152,9.107,0.978,13.757,5.439c8.304,7.969,5.985,27.089,6.27,30.348h17.454C84.271,122.403,87.46,91.599,71.517,78.433"
				/>
			<path d="M263.086,121.835h-17.722V87.93c0-9.201-1.534-15.848-4.602-19.938c-3.748-5.112-5.838-7.668-15.266-7.668
				c-9.431,0-11.576,2.556-15.437,7.668c-3.067,4.09-4.6,10.736-4.6,19.938v33.905h-17.723V88.016
				c0-30.162,9.584-45.244,37.76-45.244c28.059,0,37.589,15.082,37.589,45.244V121.835z"/>
			<path d="M361.75,89.485c0,30.05-14.088,32.919-42.262,32.919c-28.061,0-42.09-10.551-42.09-40.657V43.629h17.723v9.565
				c0,6.752,24.367,5.907,24.367,5.907C347.662,59.102,361.75,61.916,361.75,89.485 M344.027,89.708
				c0-14.853-15.11-13.063-24.54-13.063h-24.367v8.563c0,9.117,4.125,20.77,24.367,20.77
				C343.225,105.977,344.027,98.826,344.027,89.708"/>
			<path d="M445.588,122.404h-17.721v-8.861c0-9.202-1.535-15.848-4.602-19.938c-3.75-4.997-10.34-7.499-19.768-7.499h-14.484
				v36.298h-17.723V43.629h17.723v24.926h13.461c9.43,0,16.02-2.557,19.77-7.668c3.066-4.09,4.6-7.359,4.6-16.563v-0.984h17.723
				v0.95c0,16.412-4.318,24.976-12.951,32.444c9.314,7.611,13.973,19.882,13.973,36.808V122.404z"/>
			<path d="M527.725,97.554c0,18.063-12.215,24.845-36.639,24.845c-13.973,0-24.025-3.238-30.162-9.714
				c-4.203-4.542-6.305-8.085-6.305-15.131c0-7.042,2.102-10.585,6.305-15.132c6.137-6.475,16.189-7.462,30.162-7.462
				c8.291,0,18.916-0.204,18.916-5.825c0-2.728-0.797-4.714-2.385-5.965c-2.727-2.271-8.24-3.408-16.531-3.408
				c-8.178,0-13.633,1.137-16.357,3.408c-1.594,1.251-2.387,3.237-2.387,5.965h-17.723c0-6.998,2.102-12.758,6.305-17.273
				c6.137-6.433,16.189-8.527,30.162-8.527c24.424,0,36.639,7.852,36.639,25.801V97.554z M510.002,97.65v-9.773
				c-5.227,1.818-11.533,2.726-18.916,2.726c-8.178,0-13.633,1.09-16.357,3.268c-1.594,1.262-2.387,1.019-2.387,3.77
				c0,2.752,0.793,4.759,2.387,6.018c2.725,2.295,8.18,3.439,16.357,3.439c8.291,0,13.805-1.145,16.531-3.434
				C509.205,102.403,510.002,100.398,510.002,97.65"/>
			<path d="M174.956,97.554c0,18.063-12.213,24.845-36.637,24.845c-13.973,0-24.027-3.238-30.162-9.714
				c-4.204-4.542-6.305-8.085-6.305-15.131c0-7.042,2.101-10.585,6.305-15.132c6.135-6.475,16.189-7.462,30.162-7.462
				c8.291,0,18.915-0.204,18.915-5.825c0-2.728-0.796-4.714-2.386-5.965c-2.726-2.271-8.238-3.408-16.529-3.408
				c-8.179,0-13.633,1.137-16.359,3.408c-1.592,1.251-2.385,3.237-2.385,5.965h-17.723c0-6.998,2.101-12.758,6.305-17.273
				c6.135-6.433,16.189-8.527,30.162-8.527c24.424,0,36.637,7.852,36.637,25.801V97.554z M157.233,97.65v-9.773
				c-5.226,1.818-11.532,2.726-18.915,2.726c-8.179,0-13.633,1.09-16.359,3.268c-1.592,1.262-2.385,1.019-2.385,3.77
				c0,2.752,0.793,4.759,2.385,6.018c2.726,2.295,8.18,3.439,16.359,3.439c8.291,0,13.803-1.145,16.529-3.434
				C156.438,102.403,157.233,100.398,157.233,97.65"/>
			<path d="M674.162,122.913h-17.723V89.007c0-9.202-1.533-15.848-4.602-19.938c-3.863-5.111-6.008-7.668-15.436-7.668
				c-9.432,0-11.518,2.557-15.268,7.668c-3.066,4.091-4.6,10.736-4.6,19.938v33.905h-17.723V89.007
				c0-9.202-1.533-15.848-4.602-19.938c-3.863-5.111-6.008-7.668-15.436-7.668c-9.432,0-11.518,2.557-15.268,7.668
				c-3.066,4.091-4.602,10.736-4.602,19.938v33.905h-17.721v-33.82c0-30.162,9.527-45.243,37.59-45.243
				c14.994,0,21.627,4.545,28.898,13.633c7.156-9.088,13.732-13.633,28.729-13.633c28.172,0,37.76,15.081,37.76,45.243V122.913z"/>
			<path fill="#FF472F" d="M66.817,44.708h17.454c0,0,3.19,19.551-12.754,32.718c-7.392,6.104-18.406,9.258-26.575,9.242
				c-7.285-0.012-15.382-0.012-15.382-0.012V69.37l16.231-0.093c0,0,8.928,0.118,14.755-5.473
				C68.851,55.834,66.531,47.967,66.817,44.708"/>
			<rect x="11.838" y="43.629" width="17.722" height="78.774"/>
			<path fill="#FF472F" d="M73.338,12.75c1.243-1.815,3.278-1.815,4.521,0l4.922,7.186c1.244,1.815,3.278,4.785,4.521,6.6
				l4.922,7.185c1.244,1.816,0.461,3.301-1.739,3.301H79.6h-8H60.712c-2.2,0-2.983-1.485-1.739-3.301l4.922-7.185
				c1.243-1.815,3.278-4.785,4.521-6.6L73.338,12.75z"/>
			<path fill="#18D6CC" d="M77.859,155.25c-1.243,1.815-3.278,1.815-4.521,0l-4.922-7.186c-1.243-1.815-3.278-4.785-4.521-6.601
				l-4.922-7.185c-1.244-1.815-0.461-3.302,1.739-3.302H71.6h8h10.886c2.2,0,2.983,1.486,1.739,3.302l-4.922,7.185
				c-1.243,1.815-3.278,4.785-4.521,6.601L77.859,155.25z"/>
		</g>
	</g>
</g>
</svg>
